-------------------------------------------------------------------------------
Test set: googleAPITestCases.GooglePlaceAPITest
-------------------------------------------------------------------------------
Tests run: 5, Failures: 0, Errors: 0, Skipped: 0, Time elapsed: 7.402 s - in googleAPITestCases.GooglePlaceAPITest
